INDEX VERSION 1.131+C:\stockmarketApp\.metadata\.plugins\org.eclipse.jdt.core
3619332835.index
531648650.index
4138579389.index
3315016295.index
525127454.index
1491088002.index
3873401795.index
3927453603.index
3917035834.index
2253325377.index
2958316828.index
3376865071.index
2020298285.index
3735592319.index
1411978572.index
697902319.index
787689788.index
3296298929.index
2748652112.index
4140296898.index
2557753283.index
3324032288.index
1814745467.index
33422279.index
2634687565.index
2203574275.index
1663762478.index
1243453937.index
888462638.index
2464481115.index
3041700366.index
4040868596.index
221617194.index
410666819.index
2320750816.index
1169889301.index
3290571738.index
2641436658.index
4030978190.index
2246323748.index
1979116018.index
205535605.index
1763170987.index
1940613679.index
2219258415.index
3879618166.index
1326436522.index
2928175805.index
2281800159.index
1962431033.index
3467144147.index
1135425406.index
2503272246.index
3920732230.index
1890203111.index
1468835266.index
1051876683.index
3926694919.index
4294582601.index
1664296293.index
2849682708.index
1943765481.index
3211711441.index
1527907938.index
177816825.index
2974199007.index
12571033.index
1692973524.index
787192844.index
601353865.index
1634512155.index
34895309.index
1533177104.index
1565105686.index
2656631103.index
3243962439.index
2120502811.index
2680979988.index
3315738536.index
2491227079.index
227514616.index
1616375410.index
259445283.index
2269597069.index
1664602108.index
1804614291.index
3862508919.index
3579400436.index
2690023037.index
3098551711.index
1215850195.index
2275976967.index
3158697763.index
4284978400.index
3787618012.index
2311574855.index
3464166753.index
3503727719.index
2516135943.index
318818655.index
3583095519.index
3410703416.index
2816124655.index
3656780637.index
2775726488.index
2763813866.index
473325517.index
295620991.index
349266994.index
2668563872.index
3179522639.index
771668518.index
662016228.index
384243923.index
507717695.index
1259217562.index
1547876368.index
2392474910.index
3703647576.index
1128102086.index
1069304689.index
1684205765.index
3194781391.index
3092613860.index
3319007609.index
1544807558.index
390584932.index
3328573888.index
1944360837.index
1865797976.index
2676205897.index
3653954869.index
3507927083.index
4083568662.index
2741662654.index
268799372.index
2863538850.index
3259485236.index
902419130.index
1267077772.index
48496083.index
674559650.index
3667644412.index
4195735013.index
1068780516.index
4162720867.index
2397694236.index
1791240580.index
3616665514.index
1038192575.index
3942638711.index
2928075452.index
1542000946.index
3598386587.index
1208022865.index
3122619298.index
3263756004.index
593503722.index
35173839.index
3497805357.index
840229427.index
3631972050.index
1041562052.index
3398140381.index
2329988852.index
2492338449.index
3420212544.index
486436401.index
3380531688.index
2077755355.index
2868026928.index
325051077.index
2156515697.index
2302912477.index
274551731.index
1446837346.index
2967319594.index
334684614.index
1751356846.index
1603276207.index
2477684767.index
2753119872.index
3749815567.index
678349471.index
231441865.index
3827045145.index
485277093.index
4020884946.index
1549361299.index
2144205545.index
920133825.index
646615155.index
2666767061.index
3458389773.index
